…
Не забудьте переименовать фрагмент кода (там, где сейчас указано
`label-me-1`). Имя должно быть коротким, информативным и не должно
содержать пробелов, а также не должно повторять имя предыдущего
фрагмента.

-----

``` r
v <- accidents$day_of_week == "Saturday" | accidents$day_of_week == "Sunday"
accidents %>%
  mutate(day = "Weekday")
```

    ## # A tibble: 768 x 32
    ##    id         easting northing longitude latitude police_force severity vehicles
    ##    <chr>        <dbl>    <dbl>     <dbl>    <dbl>        <dbl> <fct>       <dbl>
    ##  1 201895000~  327174   670941     -3.17     55.9           95 Slight          1
    ##  2 201895000~  324874   672457     -3.20     55.9           95 Slight          1
    ##  3 201895000~  330500   671750     -3.11     55.9           95 Slight          2
    ##  4 201895000~  321890   671640     -3.25     55.9           95 Slight          3
    ##  5 201895000~  320120   669330     -3.28     55.9           95 Slight          2
    ##  6 201895000~  331752   667988     -3.09     55.9           95 Slight          3
    ##  7 201895000~  325523   674024     -3.19     56.0           95 Slight          1
    ##  8 201895000~  329230   675270     -3.14     56.0           95 Slight          1
    ##  9 201895000~  327187   674441     -3.17     56.0           95 Slight          1
    ## 10 201895000~  326420   672400     -3.18     55.9           95 Slight          2
    ## # ... with 758 more rows, and 24 more variables: casualties <dbl>, date <chr>,
    ## #   day_of_week <fct>, time <time>, district <dbl>, highway <chr>,
    ## #   first_road_class <fct>, first_road_number <chr>, road_type <fct>,
    ## #   speed_limit <dbl>, junction_detail <chr>, junction_control <chr>,
    ## #   second_road_class <chr>, second_road_number <chr>, ped_cross_human <chr>,
    ## #   ped_cross_physical <chr>, light <fct>, weather <fct>, road_surface <fct>,
    ## #   special_condition <fct>, hazard <fct>, urban_rural <dbl>, police <chr>, ...
…
